{
  "prepare_queue": {
    "installed": [],
    "uninstalled": []
  },
  "config_munge": {
    "files": {}
  },
  "installed_plugins": {
    "cordova-android-support-gradle-release": {
      "PACKAGE_NAME": "com.tapally.tapally"
    },
    "cordova-plugin-advanced-http": {
      "PACKAGE_NAME": "com.tapally.tapally"
    },
    "cordova-plugin-camera": {
      "PACKAGE_NAME": "com.tapally.tapally"
    },
    "cordova-plugin-chooser": {
      "PACKAGE_NAME": "com.tapally.tapally"
    },
    "cordova-plugin-contacts": {
      "PACKAGE_NAME": "com.tapally.tapally"
    },
    "cordova-plugin-crop": {
      "PACKAGE_NAME": "com.tapally.tapally"
    },
    "cordova-plugin-device": {
      "PACKAGE_NAME": "com.tapally.tapally"
    },
    "cordova-plugin-file": {
      "PACKAGE_NAME": "com.tapally.tapally"
    },
    "cordova-plugin-filechooser": {
      "PACKAGE_NAME": "com.tapally.tapally"
    },
    "cordova-plugin-filepicker": {
      "PACKAGE_NAME": "com.tapally.tapally"
    },
    "cordova-plugin-firebase": {
      "PACKAGE_NAME": "com.tapally.tapally"
    },
    "cordova-plugin-geolocation": {
      "PACKAGE_NAME": "com.tapally.tapally"
    },
    "cordova-plugin-inappbrowser": {
      "PACKAGE_NAME": "com.tapally.tapally"
    },
    "cordova-plugin-ionic-webview": {
      "PACKAGE_NAME": "com.tapally.tapally"
    },
    "cordova-plugin-media-capture": {
      "PACKAGE_NAME": "com.tapally.tapally"
    },
    "cordova-plugin-nativestorage": {
      "PACKAGE_NAME": "com.tapally.tapally"
    },
    "cordova-plugin-splashscreen": {
      "PACKAGE_NAME": "com.tapally.tapally"
    },
    "cordova-plugin-statusbar": {
      "PACKAGE_NAME": "com.tapally.tapally"
    },
    "cordova-plugin-telerik-imagepicker": {
      "PHOTO_LIBRARY_USAGE_DESCRIPTION": "For sending multiple images",
      "PACKAGE_NAME": "com.tapally.tapally"
    },
    "cordova-plugin-whitelist": {
      "PACKAGE_NAME": "com.tapally.tapally"
    },
    "cordova-sms-plugin": {
      "PACKAGE_NAME": "com.tapally.tapally"
    },
    "ionic-plugin-keyboard": {
      "PACKAGE_NAME": "com.tapally.tapally"
    }
  },
  "dependent_plugins": {
    "cordova-plugin-add-swift-support": {
      "PACKAGE_NAME": "com.tapally.tapally"
    }
  }
}