{
  "name": "Firebase_chat",
  "version": "0.0.1",
  "author": "Ionic Framework",
  "homepage": "http://ionicframework.com/",
  "private": true,
  "scripts": {
    "clean": "ionic-app-scripts clean",
    "build": "ionic-app-scripts build",
    "lint": "ionic-app-scripts lint",
    "ionic:build": "ionic-app-scripts build",
    "ionic:serve": "ionic-app-scripts serve"
  },
  "dependencies": {
    "@angular/animations": "^5.2.4",
    "@angular/common": "5.0.0",
    "@angular/compiler": "5.0.0",
    "@angular/compiler-cli": "5.0.0",
    "@angular/core": "5.0.0",
    "@angular/forms": "5.0.0",
    "@angular/http": "5.0.0",
    "@angular/platform-browser": "5.0.0",
    "@angular/platform-browser-dynamic": "5.0.0",
    "@ionic-native/camera": "^4.20.0",
    "@ionic-native/chooser": "^4.20.0",
    "@ionic-native/contacts": "^4.16.0",
    "@ionic-native/core": "^4.16.0",
    "@ionic-native/firebase": "^4.20.0",
    "@ionic-native/geolocation": "^4.16.0",
    "@ionic-native/http": "^4.8.0",
    "@ionic-native/image-picker": "^4.16.0",
    "@ionic-native/in-app-browser": "^4.16.0",
    "@ionic-native/media-capture": "^4.16.0",
    "@ionic-native/native-storage": "^4.20.0",
    "@ionic-native/sms": "^4.16.0",
    "@ionic-native/splash-screen": "^4.3.2",
    "@ionic-native/sqlite": "^4.8.0",
    "@ionic-native/status-bar": "^4.3.2",
    "@ionic/pro": "^1.0.20",
    "@ionic/storage": "^2.1.3",
    "@ngx-translate/core": "^11.0.1",
    "@ngx-translate/http-loader": "^4.0.0",
    "angularfire2": "^5.0.0-rc.3",
    "cordova": "^9.0.0",
    "cordova-android": "^7.1.4",
    "cordova-android-support-gradle-release": "^1.4.7",
    "cordova-ios": "^4.5.5",
    "cordova-plugin-add-swift-support": "^2.0.2",
    "cordova-plugin-advanced-http": "^1.11.1",
    "cordova-plugin-camera": "^4.0.3",
    "cordova-plugin-chooser": "^1.2.5",
    "cordova-plugin-contacts": "^3.0.1",
    "cordova-plugin-crop": "^0.4.0",
    "cordova-plugin-device": "^1.1.7",
    "cordova-plugin-file": "^6.0.1",
    "cordova-plugin-filechooser": "^1.2.0",
    "cordova-plugin-filepicker": "^1.1.6",
    "cordova-plugin-firebase": "git+https://github.com/jestcastro/cordova-plugin-firebase.git",
    "cordova-plugin-geolocation": "^4.0.1",
    "cordova-plugin-inappbrowser": "^3.0.0",
    "cordova-plugin-ionic-webview": "^1.2.1",
    "cordova-plugin-media-capture": "^3.0.2",
    "cordova-plugin-nativestorage": "^2.3.2",
    "cordova-plugin-splashscreen": "^4.1.0",
    "cordova-plugin-statusbar": "2.4.2",
    "cordova-plugin-telerik-imagepicker": "^2.3.2",
    "cordova-plugin-whitelist": "^1.3.3",
    "cordova-sms-plugin": "^0.1.13",
    "cordova-sqlite-storage": "2.5.1",
    "firebase": "^4.6.0",
    "ionic": "^3.2.0",
    "ionic-angular": "3.9.2",
    "ionic-img-viewer": "^2.9.0",
    "ionic-native-http-connection-backend": "^4.0.7",
    "ionic-plugin-keyboard": "^2.2.1",
    "ionicons": "3.0.0",
    "moment": "^2.24.0",
    "plugin": "0.3.3",
    "rxjs": "5.5.2",
    "sw-toolbox": "3.6.0",
    "zone.js": "0.8.18"
  },
  "devDependencies": {
    "@ionic/app-scripts": "^3.1.8",
    "@ionic/cli-plugin-cordova": "^1.2.0",
    "@ionic/cli-plugin-ionic-angular": "1.4.1",
    "typescript": "2.4.2",
    "ws": "3.3.2"
  },
  "description": "An Ionic project",
  "cordova": {
    "plugins": {
      "cordova-plugin-file": {},
      "ionic-plugin-keyboard": {},
      "cordova-plugin-whitelist": {},
      "cordova-plugin-device": {},
      "cordova-plugin-splashscreen": {},
      "cordova-plugin-ionic-webview": {},
      "cordova-plugin-firebase": {},
      "cordova-plugin-contacts": {},
      "cordova-plugin-nativestorage": {},
      "cordova-android-support-gradle-release": {
        "ANDROID_SUPPORT_VERSION": "24.+"
      },
      "cordova-plugin-advanced-http": {},
      "cordova-plugin-telerik-imagepicker": {
        "PHOTO_LIBRARY_USAGE_DESCRIPTION": "For sending multiple images"
      },
      "cordova-plugin-geolocation": {
        "GEOLOCATION_USAGE_DESCRIPTION": "To locate you"
      },
      "cordova-plugin-inappbrowser": {},
      "cordova-plugin-media-capture": {},
      "cordova-sms-plugin": {},
      "cordova-plugin-chooser": {},
      "cordova-plugin-filechooser": {},
      "cordova-plugin-crop": {},
      "cordova-plugin-filepicker": {},
      "cordova-plugin-camera": {},
      "cordova-plugin-statusbar": {},
      "cordova-sqlite-storage": {}
    },
    "platforms": [
      "ios",
      "android"
    ]
  }
}