{
  "project_info": {
    "project_number": "392933828452",
    "firebase_url": "https://tapallyionic3.firebaseio.com",
    "project_id": "tapallyionic3",
    "storage_bucket": "tapallyionic3.appspot.com"
  },
  "client": [
    {
      "client_info": {
        "mobilesdk_app_id": "1:392933828452:android:b23327850162a2e4",
        "android_client_info": {
          "package_name": "com.tapally.tapally"
        }
      },
      "oauth_client": [
        {
          "client_id": "392933828452-73untjdtru3kv5ganggbj4530134bqr4.apps.googleusercontent.com",
          "client_type": 1,
          "android_info": {
            "package_name": "com.tapally.tapally",
            "certificate_hash": "a7aa590ccb59c1d42040af834a7094e5847586f6"
          }
        },
        {
          "client_id": "392933828452-1bgdas7jcrs3e9mtspclssqb3ffn406k.apps.googleusercontent.com",
          "client_type": 3
        }
      ],
      "api_key": [
        {
          "current_key": "AIzaSyDiQAIzkHitc638DNzPHbrE_VZfA8tD_Gs"
        }
      ],
      "services": {
        "appinvite_service": {
          "other_platform_oauth_client": [
            {
              "client_id": "392933828452-1bgdas7jcrs3e9mtspclssqb3ffn406k.apps.googleusercontent.com",
              "client_type": 3
            }
          ]
        }
      }
    }
  ],
  "configuration_version": "1"
}